ResourceId,StartDate,EndDate
22,2020-06-09 13:00:00.0000000,2020-06-15 12:00:00.0000000
35,2020-06-08 13:00:00.0000000,2020-06-11 12:00:00.0000000
48,2020-06-08 13:00:00.0000000,2020-06-11 12:00:00.0000000
26,2020-06-06 13:00:00.0000000,2020-06-07 12:00:00.0000000
26,2020-06-05 13:00:00.0000000,2020-06-06 12:00:00.0000000
48,2020-06-05 13:00:00.0000000,2020-06-07 12:00:00.0000000
40,2020-06-05 13:00:00.0000000,2020-06-07 12:00:00.0000000
62,2020-06-04 13:00:00.0000000,2020-06-07 12:00:00.0000000
43,2020-06-01 13:00:00.0000000,2020-06-09 12:00:00.0000000
26,2020-05-30 13:00:00.0000000,2020-05-31 12:00:00.0000000
90,2020-05-30 13:00:00.0000000,2020-05-31 12:00:00.0000000
48,2020-05-29 13:00:00.0000000,2020-05-31 12:00:00.0000000
5,2020-05-01 13:00:00.0000000,2020-05-03 12:00:00.0000000